Lab4/m13.vcd
$date
  Wed Mar 29 20:19:58 2017
$end
$version
  GHDL v0
$end
$timescale
  1 fs
$end
$var reg 6 ! x[5:0] $end
$var reg 6 " modulo[5:0] $end
$var reg 6 # floor[5:0] $end
$scope module g1 $end
$var reg 6 $ x[5:0] $end
$var reg 6 % modulo[5:0] $end
$var reg 6 & floor[5:0] $end
$var reg 9 ' s52[8:0] $end
$var reg 9 ( s50[8:0] $end
$var reg 9 ) mul1[8:0] $end
$var reg 6 * fl[5:0] $end
$var reg 10 + s132[9:0] $end
$var reg 10 , s133[9:0] $end
$var reg 10 - t[9:0] $end
$var reg 10 . t2[9:0] $end
$var reg 10 / s130[9:0] $end
$var reg 10 0 mul2[9:0] $end
$var reg 10 1 sm[9:0] $end
$upscope $end
$enddefinitions $end
#0
b000000 !
b000000 "
b000000 #
b000000 $
b000000 %
b000000 &
b000000000 '
b000000000 (
b000000000 )
b000000 *
b0000000000 +
b0000000000 ,
b0000000000 -
b0000000000 .
b0000000000 /
b0000000000 0
b0000000000 1
#10000000
b000001 !
b000001 "
b000001 $
b000001 %
b000000100 '
b000000001 (
b000000101 )
b0000000001 .
b0000000001 1
#20000000
b000010 !
b000010 "
b000010 $
b000010 %
b000001000 '
b000000010 (
b000001010 )
b0000000010 .
b0000000010 1
#30000000
b000011 !
b000011 "
b000011 $
b000011 %
b000001100 '
b000000011 (
b000001111 )
b0000000011 .
b0000000011 1
#40000000
b000100 !
b000100 "
b000100 $
b000100 %
b000010000 '
b000000100 (
b000010100 )
b0000000100 .
b0000000100 1
#50000000
b000101 !
b000101 "
b000101 $
b000101 %
b000010100 '
b000000101 (
b000011001 )
b0000000101 .
b0000000101 1
#60000000
b000110 !
b000110 "
b000110 $
b000110 %
b000011000 '
b000000110 (
b000011110 )
b0000000110 .
b0000000110 1
#70000000
b000111 !
b000111 "
b000111 $
b000111 %
b000011100 '
b000000111 (
b000100011 )
b0000000111 .
b0000000111 1
#80000000
b001000 !
b001000 "
b001000 $
b001000 %
b000100000 '
b000001000 (
b000101000 )
b0000001000 .
b0000001000 1
#90000000
b001001 !
b001001 "
b001001 $
b001001 %
b000100100 '
b000001001 (
b000101101 )
b0000001001 .
b0000001001 1
#100000000
b001010 !
b001010 "
b001010 $
b001010 %
b000101000 '
b000001010 (
b000110010 )
b0000001010 .
b0000001010 1
#110000000
b001011 !
b001011 "
b001011 $
b001011 %
b000101100 '
b000001011 (
b000110111 )
b0000001011 .
b0000001011 1
#120000000
b001100 !
b001100 "
b001100 $
b001100 %
b000110000 '
b000001100 (
b000111100 )
b0000001100 .
b0000001100 1
#130000000
b001101 !
b000000 "
b000001 #
b001101 $
b000000 %
b000001 &
b000110100 '
b000001101 (
b001000001 )
b000001 *
b0000000100 +
b0000001000 ,
b0000001100 -
b0000001101 .
b0000000001 /
b0000001101 0
b0000000000 1
#140000000
b001110 !
b000001 "
b001110 $
b000001 %
b000111000 '
b000001110 (
b001000110 )
b0000001110 .
b0000000001 1
#150000000
b001111 !
b000010 "
b001111 $
b000010 %
b000111100 '
b000001111 (
b001001011 )
b0000001111 .
b0000000010 1
#160000000
b010000 !
b000011 "
b010000 $
b000011 %
b001000000 '
b000010000 (
b001010000 )
b0000010000 .
b0000000011 1
#170000000
b010001 !
b000100 "
b010001 $
b000100 %
b001000100 '
b000010001 (
b001010101 )
b0000010001 .
b0000000100 1
#180000000
b010010 !
b000101 "
b010010 $
b000101 %
b001001000 '
b000010010 (
b001011010 )
b0000010010 .
b0000000101 1
#190000000
b010011 !
b000110 "
b010011 $
b000110 %
b001001100 '
b000010011 (
b001011111 )
b0000010011 .
b0000000110 1
#200000000
b010100 !
b000111 "
b010100 $
b000111 %
b001010000 '
b000010100 (
b001100100 )
b0000010100 .
b0000000111 1
#210000000
b010101 !
b001000 "
b010101 $
b001000 %
b001010100 '
b000010101 (
b001101001 )
b0000010101 .
b0000001000 1
#220000000
b010110 !
b001001 "
b010110 $
b001001 %
b001011000 '
b000010110 (
b001101110 )
b0000010110 .
b0000001001 1
#230000000
b010111 !
b001010 "
b010111 $
b001010 %
b001011100 '
b000010111 (
b001110011 )
b0000010111 .
b0000001010 1
#240000000
b011000 !
b001011 "
b011000 $
b001011 %
b001100000 '
b000011000 (
b001111000 )
b0000011000 .
b0000001011 1
#250000000
b011001 !
b001100 "
b011001 $
b001100 %
b001100100 '
b000011001 (
b001111101 )
b0000011001 .
b0000001100 1
#260000000
b011010 !
b000000 "
b000010 #
b011010 $
b000000 %
b000010 &
b001101000 '
b000011010 (
b010000010 )
b000010 *
b0000001000 +
b0000010000 ,
b0000011000 -
b0000011010 .
b0000000010 /
b0000011010 0
b0000000000 1
#270000000
b011011 !
b000001 "
b011011 $
b000001 %
b001101100 '
b000011011 (
b010000111 )
b0000011011 .
b0000000001 1
#280000000
b011100 !
b000010 "
b011100 $
b000010 %
b001110000 '
b000011100 (
b010001100 )
b0000011100 .
b0000000010 1
#290000000
b011101 !
b000011 "
b011101 $
b000011 %
b001110100 '
b000011101 (
b010010001 )
b0000011101 .
b0000000011 1
#300000000
b011110 !
b000100 "
b011110 $
b000100 %
b001111000 '
b000011110 (
b010010110 )
b0000011110 .
b0000000100 1
#310000000
b011111 !
b000101 "
b011111 $
b000101 %
b001111100 '
b000011111 (
b010011011 )
b0000011111 .
b0000000101 1
#320000000
b100000 !
b000110 "
b100000 $
b000110 %
b010000000 '
b000100000 (
b010100000 )
b0000100000 .
b0000000110 1
#330000000
b100001 !
b000111 "
b100001 $
b000111 %
b010000100 '
b000100001 (
b010100101 )
b0000100001 .
b0000000111 1
#340000000
b100010 !
b001000 "
b100010 $
b001000 %
b010001000 '
b000100010 (
b010101010 )
b0000100010 .
b0000001000 1
#350000000
b100011 !
b001001 "
b100011 $
b001001 %
b010001100 '
b000100011 (
b010101111 )
b0000100011 .
b0000001001 1
#360000000
b100100 !
b001010 "
b100100 $
b001010 %
b010010000 '
b000100100 (
b010110100 )
b0000100100 .
b0000001010 1
#370000000
b100101 !
b001011 "
b100101 $
b001011 %
b010010100 '
b000100101 (
b010111001 )
b0000100101 .
b0000001011 1
#380000000
b100110 !
b001100 "
b100110 $
b001100 %
b010011000 '
b000100110 (
b010111110 )
b0000100110 .
b0000001100 1
#390000000
b100111 !
b000000 "
b000011 #
b100111 $
b000000 %
b000011 &
b010011100 '
b000100111 (
b011000011 )
b000011 *
b0000001100 +
b0000011000 ,
b0000100100 -
b0000100111 .
b0000000011 /
b0000100111 0
b0000000000 1
#400000000
b101000 !
b000001 "
b101000 $
b000001 %
b010100000 '
b000101000 (
b011001000 )
b0000101000 .
b0000000001 1
#410000000
b101001 !
b000010 "
b101001 $
b000010 %
b010100100 '
b000101001 (
b011001101 )
b0000101001 .
b0000000010 1
#420000000
b101010 !
b000011 "
b101010 $
b000011 %
b010101000 '
b000101010 (
b011010010 )
b0000101010 .
b0000000011 1
#430000000
b101011 !
b000100 "
b101011 $
b000100 %
b010101100 '
b000101011 (
b011010111 )
b0000101011 .
b0000000100 1
#440000000
b101100 !
b000101 "
b101100 $
b000101 %
b010110000 '
b000101100 (
b011011100 )
b0000101100 .
b0000000101 1
#450000000
b101101 !
b000110 "
b101101 $
b000110 %
b010110100 '
b000101101 (
b011100001 )
b0000101101 .
b0000000110 1
#460000000
b101110 !
b000111 "
b101110 $
b000111 %
b010111000 '
b000101110 (
b011100110 )
b0000101110 .
b0000000111 1
#470000000
b101111 !
b001000 "
b101111 $
b001000 %
b010111100 '
b000101111 (
b011101011 )
b0000101111 .
b0000001000 1
#480000000
b110000 !
b001001 "
b110000 $
b001001 %
b011000000 '
b000110000 (
b011110000 )
b0000110000 .
b0000001001 1
#490000000
b110001 !
b001010 "
b110001 $
b001010 %
b011000100 '
b000110001 (
b011110101 )
b0000110001 .
b0000001010 1
#500000000
b110010 !
b001011 "
b110010 $
b001011 %
b011001000 '
b000110010 (
b011111010 )
b0000110010 .
b0000001011 1
#510000000
b110011 !
b001100 "
b110011 $
b001100 %
b011001100 '
b000110011 (
b011111111 )
b0000110011 .
b0000001100 1
#520000000
b110100 !
b000000 "
b000100 #
b110100 $
b000000 %
b000100 &
b011010000 '
b000110100 (
b100000100 )
b000100 *
b0000010000 +
b0000100000 ,
b0000110000 -
b0000110100 .
b0000000100 /
b0000110100 0
b0000000000 1
#530000000
b110101 !
b000001 "
b110101 $
b000001 %
b011010100 '
b000110101 (
b100001001 )
b0000110101 .
b0000000001 1
#540000000
b110110 !
b000010 "
b110110 $
b000010 %
b011011000 '
b000110110 (
b100001110 )
b0000110110 .
b0000000010 1
#550000000
b110111 !
b000011 "
b110111 $
b000011 %
b011011100 '
b000110111 (
b100010011 )
b0000110111 .
b0000000011 1
#560000000
b111000 !
b000100 "
b111000 $
b000100 %
b011100000 '
b000111000 (
b100011000 )
b0000111000 .
b0000000100 1
#570000000
b111001 !
b000101 "
b111001 $
b000101 %
b011100100 '
b000111001 (
b100011101 )
b0000111001 .
b0000000101 1
#580000000
b111010 !
b000110 "
b111010 $
b000110 %
b011101000 '
b000111010 (
b100100010 )
b0000111010 .
b0000000110 1
#590000000
b111011 !
b000111 "
b111011 $
b000111 %
b011101100 '
b000111011 (
b100100111 )
b0000111011 .
b0000000111 1
#600000000
b111100 !
b001000 "
b111100 $
b001000 %
b011110000 '
b000111100 (
b100101100 )
b0000111100 .
b0000001000 1
#610000000
b111101 !
b001001 "
b111101 $
b001001 %
b011110100 '
b000111101 (
b100110001 )
b0000111101 .
b0000001001 1
#620000000
b111110 !
b001010 "
b111110 $
b001010 %
b011111000 '
b000111110 (
b100110110 )
b0000111110 .
b0000001010 1
#630000000
b111111 !
b001011 "
b111111 $
b001011 %
b011111100 '
b000111111 (
b100111011 )
b0000111111 .
b0000001011 1
