Lab5/pp.vcd
$date
  Sun Mar 26 15:36:17 2017
$end
$version
  GHDL v0
$end
$timescale
  1 fs
$end
$var reg 6 ! addr[5:0] $end
$var reg 1 " clock $end
$var reg 1 # finished $end
$var reg 52 $ enables[51:0] $end
$scope module pop $end
$var reg 6 % addr[5:0] $end
$var reg 1 & clock $end
$var reg 52 ' enables[51:0] $end
$upscope $end
$enddefinitions $end
#0
b000000 !
0"
0#
bUUUUUUUUUUUUUUUUUUUUUUUUUUUUUUUUUUUUUUUUUUUUUUUUUUUU $
b000000 %
0&
bUUUUUUUUUUUUUUUUUUUUUUUUUUUUUUUUUUUUUUUUUUUUUUUUUUUU '
#10000000
1"
b1111111111111111111111111111111111111111111111111111 $
1&
b1111111111111111111111111111111111111111111111111111 '
#20000000
b000001 !
0"
b000001 %
0&
#30000000
1"
b1111111111111111111111111111111111111111111111111110 $
1&
b1111111111111111111111111111111111111111111111111110 '
#40000000
b000010 !
0"
b000010 %
0&
#50000000
1"
b1111111111111111111111111111111111111111111111111100 $
1&
b1111111111111111111111111111111111111111111111111100 '
#60000000
b000011 !
0"
b000011 %
0&
#70000000
1"
b1111111111111111111111111111111111111111111111111000 $
1&
b1111111111111111111111111111111111111111111111111000 '
#80000000
b000100 !
0"
b000100 %
0&
#90000000
1"
b1111111111111111111111111111111111111111111111110000 $
1&
b1111111111111111111111111111111111111111111111110000 '
#100000000
b000101 !
0"
b000101 %
0&
#110000000
1"
b1111111111111111111111111111111111111111111111100000 $
1&
b1111111111111111111111111111111111111111111111100000 '
#120000000
b000110 !
0"
b000110 %
0&
#130000000
1"
b1111111111111111111111111111111111111111111111000000 $
1&
b1111111111111111111111111111111111111111111111000000 '
#140000000
b000111 !
0"
b000111 %
0&
#150000000
1"
b1111111111111111111111111111111111111111111110000000 $
1&
b1111111111111111111111111111111111111111111110000000 '
#160000000
b001000 !
0"
b001000 %
0&
#170000000
1"
b1111111111111111111111111111111111111111111100000000 $
1&
b1111111111111111111111111111111111111111111100000000 '
#180000000
b001001 !
0"
b001001 %
0&
#190000000
1"
b1111111111111111111111111111111111111111111000000000 $
1&
b1111111111111111111111111111111111111111111000000000 '
#200000000
b001010 !
0"
b001010 %
0&
#210000000
1"
b1111111111111111111111111111111111111111110000000000 $
1&
b1111111111111111111111111111111111111111110000000000 '
#220000000
b001011 !
0"
b001011 %
0&
#230000000
1"
b1111111111111111111111111111111111111111100000000000 $
1&
b1111111111111111111111111111111111111111100000000000 '
#240000000
b001100 !
0"
b001100 %
0&
#250000000
1"
b1111111111111111111111111111111111111111000000000000 $
1&
b1111111111111111111111111111111111111111000000000000 '
#260000000
b001101 !
0"
b001101 %
0&
#270000000
1"
b1111111111111111111111111111111111111110000000000000 $
1&
b1111111111111111111111111111111111111110000000000000 '
#280000000
b001110 !
0"
b001110 %
0&
#290000000
1"
b1111111111111111111111111111111111111100000000000000 $
1&
b1111111111111111111111111111111111111100000000000000 '
#300000000
b001111 !
0"
b001111 %
0&
#310000000
1"
b1111111111111111111111111111111111111000000000000000 $
1&
b1111111111111111111111111111111111111000000000000000 '
#320000000
b010000 !
0"
b010000 %
0&
#330000000
1"
b1111111111111111111111111111111111110000000000000000 $
1&
b1111111111111111111111111111111111110000000000000000 '
#340000000
b010001 !
0"
b010001 %
0&
#350000000
1"
b1111111111111111111111111111111111100000000000000000 $
1&
b1111111111111111111111111111111111100000000000000000 '
#360000000
b010010 !
0"
b010010 %
0&
#370000000
1"
b1111111111111111111111111111111111000000000000000000 $
1&
b1111111111111111111111111111111111000000000000000000 '
#380000000
b010011 !
0"
b010011 %
0&
#390000000
1"
b1111111111111111111111111111111110000000000000000000 $
1&
b1111111111111111111111111111111110000000000000000000 '
#400000000
b010100 !
0"
b010100 %
0&
#410000000
1"
b1111111111111111111111111111111100000000000000000000 $
1&
b1111111111111111111111111111111100000000000000000000 '
#420000000
b010101 !
0"
b010101 %
0&
#430000000
1"
b1111111111111111111111111111111000000000000000000000 $
1&
b1111111111111111111111111111111000000000000000000000 '
#440000000
b010110 !
0"
b010110 %
0&
#450000000
1"
b1111111111111111111111111111110000000000000000000000 $
1&
b1111111111111111111111111111110000000000000000000000 '
#460000000
b010111 !
0"
b010111 %
0&
#470000000
1"
b1111111111111111111111111111100000000000000000000000 $
1&
b1111111111111111111111111111100000000000000000000000 '
#480000000
b011000 !
0"
b011000 %
0&
#490000000
1"
b1111111111111111111111111111000000000000000000000000 $
1&
b1111111111111111111111111111000000000000000000000000 '
#500000000
b011001 !
0"
b011001 %
0&
#510000000
1"
b1111111111111111111111111110000000000000000000000000 $
1&
b1111111111111111111111111110000000000000000000000000 '
#520000000
b011010 !
0"
b011010 %
0&
#530000000
1"
b1111111111111111111111111100000000000000000000000000 $
1&
b1111111111111111111111111100000000000000000000000000 '
#540000000
b011011 !
0"
b011011 %
0&
#550000000
1"
b1111111111111111111111111000000000000000000000000000 $
1&
b1111111111111111111111111000000000000000000000000000 '
#560000000
b011100 !
0"
b011100 %
0&
#570000000
1"
b1111111111111111111111110000000000000000000000000000 $
1&
b1111111111111111111111110000000000000000000000000000 '
#580000000
b011101 !
0"
b011101 %
0&
#590000000
1"
b1111111111111111111111100000000000000000000000000000 $
1&
b1111111111111111111111100000000000000000000000000000 '
#600000000
b011110 !
0"
b011110 %
0&
#610000000
1"
b1111111111111111111111000000000000000000000000000000 $
1&
b1111111111111111111111000000000000000000000000000000 '
#620000000
b011111 !
0"
b011111 %
0&
#630000000
1"
b1111111111111111111110000000000000000000000000000000 $
1&
b1111111111111111111110000000000000000000000000000000 '
#640000000
b100000 !
0"
b100000 %
0&
#650000000
1"
b1111111111111111111100000000000000000000000000000000 $
1&
b1111111111111111111100000000000000000000000000000000 '
#660000000
b100001 !
0"
b100001 %
0&
#670000000
1"
b1111111111111111111000000000000000000000000000000000 $
1&
b1111111111111111111000000000000000000000000000000000 '
#680000000
b100010 !
0"
b100010 %
0&
#690000000
1"
b1111111111111111110000000000000000000000000000000000 $
1&
b1111111111111111110000000000000000000000000000000000 '
#700000000
b100011 !
0"
b100011 %
0&
#710000000
1"
b1111111111111111100000000000000000000000000000000000 $
1&
b1111111111111111100000000000000000000000000000000000 '
#720000000
b100100 !
0"
b100100 %
0&
#730000000
1"
b1111111111111111000000000000000000000000000000000000 $
1&
b1111111111111111000000000000000000000000000000000000 '
#740000000
b100101 !
0"
b100101 %
0&
#750000000
1"
b1111111111111110000000000000000000000000000000000000 $
1&
b1111111111111110000000000000000000000000000000000000 '
#760000000
b100110 !
0"
b100110 %
0&
#770000000
1"
b1111111111111100000000000000000000000000000000000000 $
1&
b1111111111111100000000000000000000000000000000000000 '
#780000000
b100111 !
0"
b100111 %
0&
#790000000
1"
b1111111111111000000000000000000000000000000000000000 $
1&
b1111111111111000000000000000000000000000000000000000 '
#800000000
b101000 !
0"
b101000 %
0&
#810000000
1"
b1111111111110000000000000000000000000000000000000000 $
1&
b1111111111110000000000000000000000000000000000000000 '
#820000000
b101001 !
0"
b101001 %
0&
#830000000
1"
b1111111111100000000000000000000000000000000000000000 $
1&
b1111111111100000000000000000000000000000000000000000 '
#840000000
b101010 !
0"
b101010 %
0&
#850000000
1"
b1111111111000000000000000000000000000000000000000000 $
1&
b1111111111000000000000000000000000000000000000000000 '
#860000000
b101011 !
0"
b101011 %
0&
#870000000
1"
b1111111110000000000000000000000000000000000000000000 $
1&
b1111111110000000000000000000000000000000000000000000 '
#880000000
b101100 !
0"
b101100 %
0&
#890000000
1"
b1111111100000000000000000000000000000000000000000000 $
1&
b1111111100000000000000000000000000000000000000000000 '
#900000000
b101101 !
0"
b101101 %
0&
#910000000
1"
b1111111000000000000000000000000000000000000000000000 $
1&
b1111111000000000000000000000000000000000000000000000 '
#920000000
b101110 !
0"
b101110 %
0&
#930000000
1"
b1111110000000000000000000000000000000000000000000000 $
1&
b1111110000000000000000000000000000000000000000000000 '
#940000000
b101111 !
0"
b101111 %
0&
#950000000
1"
b1111100000000000000000000000000000000000000000000000 $
1&
b1111100000000000000000000000000000000000000000000000 '
#960000000
b110000 !
0"
b110000 %
0&
#970000000
1"
b1110000000000000000000000000000000000000000000000000 $
1&
b1110000000000000000000000000000000000000000000000000 '
#980000000
b110001 !
0"
b110001 %
0&
#990000000
1"
b1100000000000000000000000000000000000000000000000000 $
1&
b1100000000000000000000000000000000000000000000000000 '
#1000000000
b110010 !
0"
b110010 %
0&
#1010000000
1"
b1000000000000000000000000000000000000000000000000000 $
1&
b1000000000000000000000000000000000000000000000000000 '
#1020000000
b110011 !
0"
b110011 %
0&
#1030000000
1"
b0000000000000000000000000000000000000000000000000000 $
1&
b0000000000000000000000000000000000000000000000000000 '
#1040000000
b110100 !
0"
b110100 %
0&
#1050000000
1"
1&
#1060000000
b110101 !
0"
b110101 %
0&
#1070000000
1"
1&
#1080000000
b110110 !
0"
b110110 %
0&
#1090000000
1"
1&
#1100000000
b110111 !
0"
b110111 %
0&
#1110000000
1"
1&
#1120000000
b111000 !
0"
b111000 %
0&
#1130000000
1"
1&
#1140000000
b111001 !
0"
b111001 %
0&
#1150000000
1"
1&
#1160000000
b111010 !
0"
b111010 %
0&
#1170000000
1"
1&
#1180000000
b111011 !
0"
b111011 %
0&
#1190000000
1"
1&
#1200000000
b111100 !
0"
b111100 %
0&
#1210000000
1"
1&
#1220000000
b111101 !
0"
b111101 %
0&
#1230000000
1"
1&
#1240000000
b111110 !
0"
b111110 %
0&
#1250000000
1"
1&
#1260000000
b111111 !
0"
b111111 %
0&
#1270000000
1"
1&
#1280000000
0"
1#
0&
