Lab3/comp.vcd
$date
  Wed Mar 22 17:22:39 2017
$end
$version
  GHDL v0
$end
$timescale
  1 fs
$end
$var reg 6 ! dataa[5:0] $end
$var reg 6 " datab[5:0] $end
$var reg 1 # eq $end
$var reg 1 $ gt $end
$var reg 1 % lt $end
$scope module comp $end
$var reg 6 & dataa[5:0] $end
$var reg 6 ' datab[5:0] $end
$var reg 1 ( eq $end
$var reg 1 ) lt $end
$var reg 1 * gt $end
$upscope $end
$enddefinitions $end
#0
b000000 !
b110100 "
0#
0$
1%
b000000 &
b110100 '
0(
1)
0*
#5000000
b000001 !
b000001 &
1)
#10000000
b000010 !
b000010 &
1)
#15000000
b000011 !
b000011 &
1)
#20000000
b000100 !
b000100 &
1)
#25000000
b000101 !
b000101 &
1)
#30000000
b000110 !
b000110 &
1)
#35000000
b000111 !
b000111 &
1)
#40000000
b001000 !
b001000 &
1)
#45000000
b001001 !
b001001 &
1)
#50000000
b001010 !
b001010 &
1)
#55000000
b001011 !
b001011 &
1)
#60000000
b001100 !
b001100 &
1)
#65000000
b001101 !
b001101 &
1)
#70000000
b001110 !
b001110 &
1)
#75000000
b001111 !
b001111 &
1)
#80000000
b010000 !
b010000 &
1)
#85000000
b010001 !
b010001 &
1)
#90000000
b010010 !
b010010 &
1)
#95000000
b010011 !
b010011 &
1)
#100000000
b010100 !
b010100 &
1)
#105000000
b010101 !
b010101 &
1)
#110000000
b010110 !
b010110 &
1)
#115000000
b010111 !
b010111 &
1)
#120000000
b011000 !
b011000 &
1)
#125000000
b011001 !
b011001 &
1)
#130000000
b011010 !
b011010 &
1)
#135000000
b011011 !
b011011 &
1)
#140000000
b011100 !
b011100 &
1)
#145000000
b011101 !
b011101 &
1)
#150000000
b011110 !
b011110 &
1)
#155000000
b011111 !
b011111 &
1)
#160000000
b100000 !
b100000 &
1)
#165000000
b100001 !
b100001 &
1)
#170000000
b100010 !
b100010 &
1)
#175000000
b100011 !
b100011 &
1)
#180000000
b100100 !
b100100 &
1)
#185000000
b100101 !
b100101 &
1)
#190000000
b100110 !
b100110 &
1)
#195000000
b100111 !
b100111 &
1)
#200000000
b101000 !
b101000 &
1)
#205000000
b101001 !
b101001 &
1)
#210000000
b101010 !
b101010 &
1)
#215000000
b101011 !
b101011 &
1)
#220000000
b101100 !
b101100 &
1)
#225000000
b101101 !
b101101 &
1)
#230000000
b101110 !
b101110 &
1)
#235000000
b101111 !
b101111 &
1)
#240000000
b110000 !
b110000 &
1)
#245000000
b110001 !
b110001 &
1)
#250000000
b110010 !
b110010 &
1)
#255000000
b110011 !
b110011 &
1)
#260000000
b110100 !
1#
0%
b110100 &
1(
0)
#265000000
b110101 !
0#
1$
b110101 &
0(
1*
#270000000
b110110 !
b110110 &
1*
#275000000
b110111 !
b110111 &
1*
#280000000
b111000 !
b111000 &
1*
#285000000
b111001 !
b111001 &
1*
#290000000
b111010 !
b111010 &
1*
#295000000
b111011 !
b111011 &
1*
#300000000
b111100 !
b111100 &
1*
#305000000
b111101 !
b111101 &
1*
#310000000
b111110 !
b111110 &
1*
#315000000
b111111 !
b111111 &
1*
