Lab3/nmrdcr.vcd
$date
  Wed Mar 22 14:23:07 2017
$end
$version
  GHDL v0
$end
$timescale
  1 fs
$end
$var reg 6 ! input[5:0] $end
$var reg 6 " output[5:0] $end
$scope module r $end
$var reg 6 # num_in[5:0] $end
$var reg 6 $ mask_out[5:0] $end
$upscope $end
$enddefinitions $end
#0
b000000 !
b000001 "
b000000 #
b000001 $
#5000000
b000001 !
b000001 #
#10000000
b000010 !
b000011 "
b000010 #
b000011 $
#15000000
b000011 !
b000011 #
#20000000
b000100 !
b000111 "
b000100 #
b000111 $
#25000000
b000101 !
b000101 #
#30000000
b000110 !
b000110 #
#35000000
b000111 !
b000111 #
#40000000
b001000 !
b001111 "
b001000 #
b001111 $
#45000000
b001001 !
b001001 #
#50000000
b001010 !
b001010 #
#55000000
b001011 !
b001011 #
#60000000
b001100 !
b001100 #
#65000000
b001101 !
b001101 #
#70000000
b001110 !
b001110 #
#75000000
b001111 !
b001111 #
#80000000
b010000 !
b011111 "
b010000 #
b011111 $
#85000000
b010001 !
b010001 #
#90000000
b010010 !
b010010 #
#95000000
b010011 !
b010011 #
#100000000
b010100 !
b010100 #
#105000000
b010101 !
b010101 #
#110000000
b010110 !
b010110 #
#115000000
b010111 !
b010111 #
#120000000
b011000 !
b011000 #
#125000000
b011001 !
b011001 #
#130000000
b011010 !
b011010 #
#135000000
b011011 !
b011011 #
#140000000
b011100 !
b011100 #
#145000000
b011101 !
b011101 #
#150000000
b011110 !
b011110 #
#155000000
b011111 !
b011111 #
#160000000
b100000 !
b111111 "
b100000 #
b111111 $
#165000000
b100001 !
b100001 #
#170000000
b100010 !
b100010 #
#175000000
b100011 !
b100011 #
#180000000
b100100 !
b100100 #
#185000000
b100101 !
b100101 #
#190000000
b100110 !
b100110 #
#195000000
b100111 !
b100111 #
#200000000
b101000 !
b101000 #
#205000000
b101001 !
b101001 #
#210000000
b101010 !
b101010 #
#215000000
b101011 !
b101011 #
#220000000
b101100 !
b101100 #
#225000000
b101101 !
b101101 #
#230000000
b101110 !
b101110 #
#235000000
b101111 !
b101111 #
#240000000
b110000 !
b110000 #
#245000000
b110001 !
b110001 #
#250000000
b110010 !
b110010 #
#255000000
b110011 !
b110011 #
#260000000
b110100 !
b110100 #
#265000000
b110101 !
b110101 #
#270000000
b110110 !
b110110 #
#275000000
b110111 !
b110111 #
#280000000
b111000 !
b111000 #
#285000000
b111001 !
b111001 #
#290000000
b111010 !
b111010 #
#295000000
b111011 !
b111011 #
#300000000
b111100 !
b111100 #
#305000000
b111101 !
b111101 #
#310000000
b111110 !
b111110 #
#315000000
b111111 !
b111111 #
